<svg xmlns="http://www.w3.org/2000/svg" width="356" height="167" viewBox="0 0 356 167">
    <g fill="none" fill-rule="evenodd">
        <g fill="#414141">
            <path d="M173.903 131.927H159.74V112.41h14.163c6.696.103 11.26 3.86 11.26 9.738 0 5.88-4.564 9.779-11.26 9.779M175.831 98H143v69h16.74v-19.75h15.989c17.653 0 26.271-12.468 26.271-25.102S193.482 98 175.83 98M335.179 139.72L303.82 97H287v70h16.821v-42.824L335.18 167H352V97h-16.821zM151.172 76.95v-6.6h7.076c3.24 0 4.933.8 4.933 3.3 0 2.2-1.644 3.3-4.933 3.3h-7.076zm0-19.95h6.528c3.139 0 4.634 1.1 4.634 3.4 0 2.65-1.096 3.7-4.634 3.7h-6.528V57zM172 74.1c0-3.65-1.794-6.6-5.082-8.25.747-.55 3.188-3 3.188-6.5 0-5.45-3.089-9.35-12.904-9.35H143v34h16.195C168.462 84 172 79.65 172 74.1zM239.324 63.2L256.676 84H265V50h-8.324v20.75L239.324 50H231v34h8.324zM309 77.062l-7.07-4.778a9.27 9.27 0 0 1-7.125 3.305c-5.105 0-9.246-4.07-9.246-9.092 0-5.016 4.141-9.086 9.246-9.086a9.268 9.268 0 0 1 7.11 3.29l7.07-4.783C305.733 51.71 300.592 49 294.805 49 284.97 49 277 56.836 277 66.497 277 76.165 284.969 84 294.805 84c5.798 0 10.943-2.72 14.195-6.938M336.5 57.407c5.018 0 9.088 4.075 9.088 9.093a9.088 9.088 0 0 1-18.176 0c0-5.018 4.07-9.093 9.088-9.093m0 26.593c9.665 0 17.5-7.835 17.5-17.5S346.165 49 336.5 49c-9.666 0-17.5 7.835-17.5 17.5S326.834 84 336.5 84M200.636 59.3l4.794 11.285c-1.596.235-3.222.361-4.845.361-1.622 0-3.23-.123-4.815-.355l4.866-11.29zm-7.916 18.366a40.677 40.677 0 0 0 14.915.156c.267-.047.533-.108.8-.16L211.13 84H220l-14.803-34h-9.276L181 84h8.99l2.73-6.334zM236 140.798c-3.298 0-6.566-.252-9.791-.729l9.895-23.195 9.749 23.184c-3.248.481-6.55.74-9.853.74zM226.632 98L197 167h17.719l5.483-12.855a80.563 80.563 0 0 0 15.799 1.564c4.752 0 9.517-.419 14.16-1.246.537-.096 1.073-.22 1.61-.326l5.41 12.863H275l-29.733-69h-18.635z"/>
        </g>
        <path fill="#414141" d="M50.5 111C39.192 111 30 101.807 30 90.5 30 79.192 39.192 70 50.5 70S71 79.192 71 90.5c0 11.307-9.192 20.5-20.5 20.5M50 40C22.429 40 0 62.497 0 90.152V167h29.496v-31.034l2.32.913A49.652 49.652 0 0 0 50 140.303c27.571 0 50-22.496 50-50.151C100 62.497 77.571 40 50 40"/>
        <path fill="#03A9F4" d="M0 29h29V0H0z"/>
    </g>
</svg>
